{
  "swagger": "2.0",
  "info": {
    "description": "This is a api documentation of binar chapter 8 challange about making validation on player function",
    "version": "1.0.0",
    "title": "Binar Challange 8 api documentation",
    "termsOfService": "http://localhost:5000/"
  },
  "host": "localhost:8081",
  "basePath": "/",
  "tags": [
    {
      "name": "players",
      "description": "Everything about player function"
    }
  ],
  "schemes": [
    "http"
  ],
  "paths": {
    "/players": {
      "post": {
        "tags": [
          "players"
        ],
        "summary": "Adding a new players users",
        "description": "Making user for player that have validation if username or password is null then return msg erorr",
        "operationId": "addPlayer",
        "consumes": [
          "application/json"
        ],
        "produces": [
          "application/json"
        ],
        "parameters": [
          {
            "in": "body",
            "name": "body",
            "description": "Player obeject that need to post on user player",
            "required": true,
            "schema": {
              "$ref": "#/definitions/Players"
            }
          }
        ],
        "responses": {
          "201": {
            "description": "SUCCESS",
            "schema": {
              "type": "array",
              "items": {
                "$ref": "#/definitions/ApiResponse"
              }
            }
          },
          "400": {
            "description": "username or email or password field cannot be empty.",
            "schema": {
              "type": "array",
              "items": {
                "$ref": "#/definitions/ApiResponse"
              }
            }
          },
          "500": {
            "description": "Some error occurred while creating the Player.",
            "schema": {
              "type": "array",
              "items": {
                "$ref": "#/definitions/ApiResponse"
              }
            }
          }
        }
      },
      "get": {
        "tags": [
          "players"
        ],
        "summary": "Get all User Player data",
        "description": "Get all user player",
        "operationId": "GeetAllPlayers",
        "produces": [
          "application/json"
        ],
        "parameters": [
          {
            "name": "username",
            "in": "query",
            "description": "username use to get ",
            "type": "string"
          }
        ],
        "responses": {
          "200": {
            "description": "SUCCESS",
            "schema": {
              "type": "array",
              "items": {
                "$ref": "#/definitions/Players"
              }
            }
          },
          "500": {
            "description": "Some error occurred while retrieving players",
            "schema": {
              "type": "array",
              "items": {
                "$ref": "#/definitions/ApiResponse"
              }
            }
          }
        }
      }
    },
    "/players/{id}": {
      "get": {
        "tags": [
          "players"
        ],
        "summary": "Getting user player with id parameter",
        "description": "Getting user player with id as primary to get data",
        "parameters": [
          {
            "name": "id",
            "in": "path",
            "description": "ID of player",
            "required": true,
            "type": "integer",
            "format": "int64"
          }
        ],
        "responses": {
          "200": {
            "description": "SUCCESS",
            "schema": {
              "type": "array",
              "items": {
                "$ref": "#/definitions/Players"
              }
            }
          },
          "500": {
            "description": "Error retrieving Player with id",
            "schema": {
              "type": "array",
              "items": {
                "$ref": "#/definitions/ApiResponse"
              }
            }
          }
        }
      },
      "put": {
        "tags": [
          "players"
        ],
        "summary": "Update player information",
        "description": "update data base on id if id is found on sytem than update the data players",
        "parameters": [
          {
            "name": "id",
            "in": "path",
            "description": "ID of player",
            "required": true,
            "type": "integer",
            "format": "int64"
          }
        ],
        "responses": {
          "200": {
            "description": "Player was updated successfully.",
            "schema": {
              "type": "array",
              "items": {
                "$ref": "#/definitions/Players"
              }
            }
          },
          "500": {
            "description": "Error retrieving Player with id",
            "schema": {
              "type": "array",
              "items": {
                "$ref": "#/definitions/ApiResponse"
              }
            }
          }
        }
      },
      "delete": {
        "tags": [
          "players"
        ],
        "summary": "Delete player",
        "description": "delete player base on id parameter",
        "parameters": [
          {
            "name": "id",
            "in": "path",
            "description": "ID of player",
            "required": true,
            "type": "integer",
            "format": "int64"
          }
        ],
        "responses": {
          "200": {
            "description": "Player was deleted successfully.",
            "schema": {
              "type": "array",
              "items": {
                "$ref": "#/definitions/ApiResponse"
              }
            }
          },
          "400": {
            "description": "Player was failed to delete.",
            "schema": {
              "type": "array",
              "items": {
                "$ref": "#/definitions/ApiResponse"
              }
            }
          },
          "500": {
            "description": "Player was not found.",
            "schema": {
              "type": "array",
              "items": {
                "$ref": "#/definitions/ApiResponse"
              }
            }
          }
        }
      }
    },
    "/players/exp/{id}": {
      "post": {
        "tags": [
          "players"
        ],
        "summary": "Updating player experience",
        "description": "this function is making validation to update experience of player",
        "parameters": [
          {
            "name": "id",
            "in": "path",
            "description": "ID of player",
            "required": true,
            "type": "integer",
            "format": "int64"
          },
          {
            "name": "exp",
            "in": "query",
            "description": "experience when playing on game!",
            "required": true,
            "type": "integer",
            "format": "int64"
          }
        ],
        "responses": {
          "200": {
            "description": "SUCCESS",
            "schema": {
              "type": "array",
              "items": {
                "$ref": "#/definitions/Players"
              }
            }
          },
          "500": {
            "description": "Error retrieving Player with id",
            "schema": {
              "type": "array",
              "items": {
                "$ref": "#/definitions/ApiResponse"
              }
            }
          }
        }
      }
    }
  },
  "securityDefinitions": {
    "petstore_auth": {
      "type": "oauth2",
      "authorizationUrl": "http://petstore.swagger.io/oauth/dialog",
      "flow": "implicit",
      "scopes": {
        "write:pets": "modify pets in your account",
        "read:pets": "read your pets"
      }
    },
    "api_key": {
      "type": "apiKey",
      "name": "api_key",
      "in": "header"
    }
  },
  "definitions": {
    "Players": {
      "type": "object",
      "properties": {
        "username": {
          "type": "string"
        },
        "email": {
          "type": "string"
        },
        "password": {
          "type": "string"
        },
        "experience": {
          "type": "integer"
        },
        "lvl": {
          "type": "integer"
        }
      }
    },
    "ApiResponse": {
      "type": "object",
      "properties": {
        "result": {
          "type": "string"
        },
        "message": {
          "type": "string"
        }
      }
    }
  }
}